﻿  gtest_main.cc
C:\Program Files (x86)\MSBuild\Microsoft.Cpp\v4.0\V140\Microsoft.CppBuild.targets(1357,5): warning MSB8012: TargetPath(C:\Users\costaeu\Downloads\googletest-master\googletest\msvc\gtest-md/Debug\gtest_main-md.lib) does not match the Library's OutputFile property value (C:\Users\costaeu\Downloads\googletest-master\googletest\msvc\gtest-md\Debug\gtest_main-mdd.lib). This may cause your project to build incorrectly. To correct this, please make sure that $(OutDir), $(TargetName) and $(TargetExt) property values match the value specified in %(Lib.OutputFile).
C:\Program Files (x86)\MSBuild\Microsoft.Cpp\v4.0\V140\Microsoft.CppBuild.targets(1359,5): warning MSB8012: TargetName(gtest_main-md) does not match the Library's OutputFile property value (gtest_main-mdd). This may cause your project to build incorrectly. To correct this, please make sure that $(OutDir), $(TargetName) and $(TargetExt) property values match the value specified in %(Lib.OutputFile).
  gtest_main-md.vcxproj -> C:\Users\costaeu\Downloads\googletest-master\googletest\msvc\gtest-md/Debug\gtest_main-md.lib
