^C:\USERS\COSTAEU\DOWNLOADS\GOOGLETEST-MASTER\GOOGLETEST\MSVC\GTEST\DEBUG\GTEST\GTEST-ALL.OBJ
C:\WINDOWS\GLOBALIZATION\SORTING\SORTDEFAULT.NLS
C:\USERS\COSTAEU\DOWNLOADS\GOOGLETEST-MASTER\GOOGLETEST\MSVC\GTEST\DEBUG\GTEST\GTEST-ALL.OBJ
C:\WINDOWS\SYSTEM32\TZRES.DLL
