^C:\USERS\COSTAEU\DOWNLOADS\GOOGLETEST-MASTER\GOOGLETEST\MSVC\GTEST\DEBUG\GTESTD.LIB|C:\USERS\COSTAEU\DOWNLOADS\GOOGLETEST-MASTER\GOOGLETEST\MSVC\GTEST\DEBUG\GTEST_MAIND.LIB|C:\USERS\COSTAEU\DOWNLOADS\GOOGLETEST-MASTER\GOOGLETEST\MSVC\GTEST\DEBUG\GTEST_PROD_TEST\GTEST_PROD_TEST.OBJ|C:\USERS\COSTAEU\DOWNLOADS\GOOGLETEST-MASTER\GOOGLETEST\MSVC\GTEST\DEBUG\GTEST_PROD_TEST\PRODUCTION.OBJ
C:\USERS\COSTAEU\DOWNLOADS\GOOGLETEST-MASTER\GOOGLETEST\MSVC\GTEST\DEBUG\GTEST_PROD_TEST.ILK
C:\USERS\COSTAEU\DOWNLOADS\GOOGLETEST-MASTER\GOOGLETEST\MSVC\GTEST\DEBUG\GTEST_PROD_TEST.EXE
C:\USERS\COSTAEU\DOWNLOADS\GOOGLETEST-MASTER\GOOGLETEST\MSVC\GTEST\DEBUG\GTEST_PROD_TEST.PDB
