^C:\USERS\COSTAEU\DOWNLOADS\GOOGLETEST-MASTER\GOOGLETEST\SRC\GTEST_MAIN.CC
C:\USERS\COSTAEU\DOWNLOADS\GOOGLETEST-MASTER\GOOGLETEST\MSVC\GTEST-MD\RELEASE\GTEST_MAIN-MD\GTEST_MAIN-MD.PDB
C:\USERS\COSTAEU\DOWNLOADS\GOOGLETEST-MASTER\GOOGLETEST\MSVC\GTEST-MD\RELEASE\GTEST_MAIN-MD\GTEST_MAIN.OBJ
