^C:\USERS\COSTAEU\DOWNLOADS\GOOGLETEST-MASTER\GOOGLETEST\TEST\GTEST_PROD_TEST.CC
/c /I.. /I..\INCLUDE /ZI /nologo /W3 /WX- /Od /Oy- /D WIN32 /D _DEBUG /D _CONSOLE /D _MBCS /Gm /EHsc /RTC1 /MDd /GS /fp:precise /Zc:wchar_t /Zc:forScope /Zc:inline /Fo"GTEST-MD/DEBUG\GTEST_PROD_TEST-MD\\" /Fd"GTEST-MD/DEBUG\GTEST_PROD_TEST-MD\VC140.PDB" /Gd /TP /analyze- C:\USERS\COSTAEU\DOWNLOADS\GOOGLETEST-MASTER\GOOGLETEST\TEST\GTEST_PROD_TEST.CC
^C:\USERS\COSTAEU\DOWNLOADS\GOOGLETEST-MASTER\GOOGLETEST\TEST\PRODUCTION.CC
/c /I.. /I..\INCLUDE /ZI /nologo /W3 /WX- /Od /Oy- /D WIN32 /D _DEBUG /D _CONSOLE /D _MBCS /Gm /EHsc /RTC1 /MDd /GS /fp:precise /Zc:wchar_t /Zc:forScope /Zc:inline /Fo"GTEST-MD/DEBUG\GTEST_PROD_TEST-MD\\" /Fd"GTEST-MD/DEBUG\GTEST_PROD_TEST-MD\VC140.PDB" /Gd /TP /analyze- C:\USERS\COSTAEU\DOWNLOADS\GOOGLETEST-MASTER\GOOGLETEST\TEST\PRODUCTION.CC
