^C:\USERS\COSTAEU\DOWNLOADS\GOOGLETEST-MASTER\GOOGLETEST\MSVC\GTEST-MD\DEBUG\GTESTD.LIB|C:\USERS\COSTAEU\DOWNLOADS\GOOGLETEST-MASTER\GOOGLETEST\MSVC\GTEST-MD\DEBUG\GTEST_MAIN-MDD.LIB|C:\USERS\COSTAEU\DOWNLOADS\GOOGLETEST-MASTER\GOOGLETEST\MSVC\GTEST-MD\DEBUG\GTEST_PROD_TEST-MD\GTEST_PROD_TEST.OBJ|C:\USERS\COSTAEU\DOWNLOADS\GOOGLETEST-MASTER\GOOGLETEST\MSVC\GTEST-MD\DEBUG\GTEST_PROD_TEST-MD\PRODUCTION.OBJ
C:\USERS\COSTAEU\DOWNLOADS\GOOGLETEST-MASTER\GOOGLETEST\MSVC\GTEST-MD\DEBUG\GTEST_PROD_TEST.ILK
C:\USERS\COSTAEU\DOWNLOADS\GOOGLETEST-MASTER\GOOGLETEST\MSVC\GTEST-MD\DEBUG\GTEST_PROD_TEST.EXE
C:\USERS\COSTAEU\DOWNLOADS\GOOGLETEST-MASTER\GOOGLETEST\MSVC\GTEST-MD\DEBUG\GTEST_PROD_TEST.PDB
