^C:\USERS\COSTAEU\DOWNLOADS\GOOGLETEST-MASTER\GOOGLETEST\MSVC\GTEST-MD\RELEASE\GTEST-MD\GTEST-ALL.OBJ
C:\WINDOWS\GLOBALIZATION\SORTING\SORTDEFAULT.NLS
C:\USERS\COSTAEU\DOWNLOADS\GOOGLETEST-MASTER\GOOGLETEST\MSVC\GTEST-MD\RELEASE\GTEST-MD\GTEST-ALL.OBJ
C:\WINDOWS\SYSTEM32\TZRES.DLL
