^C:\USERS\COSTAEU\DOWNLOADS\GOOGLETEST-MASTER\GOOGLETEST\TEST\GTEST_PROD_TEST.CC
/c /I.. /I..\INCLUDE /Zi /nologo /W3 /WX- /O2 /Oy- /D WIN32 /D NDEBUG /D _CONSOLE /D _MBCS /Gm- /EHsc /MD /GS /fp:precise /Zc:wchar_t /Zc:forScope /Zc:inline /Fo"GTEST-MD/RELEASE\GTEST_PROD_TEST-MD\\" /Fd"GTEST-MD/RELEASE\GTEST_PROD_TEST-MD\VC140.PDB" /Gd /TP /analyze- C:\USERS\COSTAEU\DOWNLOADS\GOOGLETEST-MASTER\GOOGLETEST\TEST\GTEST_PROD_TEST.CC
^C:\USERS\COSTAEU\DOWNLOADS\GOOGLETEST-MASTER\GOOGLETEST\TEST\PRODUCTION.CC
/c /I.. /I..\INCLUDE /Zi /nologo /W3 /WX- /O2 /Oy- /D WIN32 /D NDEBUG /D _CONSOLE /D _MBCS /Gm- /EHsc /MD /GS /fp:precise /Zc:wchar_t /Zc:forScope /Zc:inline /Fo"GTEST-MD/RELEASE\GTEST_PROD_TEST-MD\\" /Fd"GTEST-MD/RELEASE\GTEST_PROD_TEST-MD\VC140.PDB" /Gd /TP /analyze- C:\USERS\COSTAEU\DOWNLOADS\GOOGLETEST-MASTER\GOOGLETEST\TEST\PRODUCTION.CC
