^C:\USERS\COSTAEU\DOWNLOADS\GOOGLETEST-MASTER\GOOGLETEST\SRC\GTEST-ALL.CC
C:\USERS\COSTAEU\DOWNLOADS\GOOGLETEST-MASTER\GOOGLETEST\MSVC\GTEST-MD\DEBUG\GTEST-MD\GTEST-MD.PDB
C:\USERS\COSTAEU\DOWNLOADS\GOOGLETEST-MASTER\GOOGLETEST\MSVC\GTEST-MD\DEBUG\GTEST-MD\GTEST-MD.IDB
C:\USERS\COSTAEU\DOWNLOADS\GOOGLETEST-MASTER\GOOGLETEST\MSVC\GTEST-MD\DEBUG\GTEST-MD\GTEST-ALL.OBJ
